{
  "index_name": "resources",
  "start_urls": ["https://resources.grey.software"],
  "sitemap_urls": ["https://resources.grey.software/sitemap.xml"],
  "selectors": {
    "default": {
      "lvl0": "header h1",
      "lvl1": "header h1",
      "lvl2": "article h2",
      "lvl3": "article h3",
      "lvl4": "article h4",
      "lvl5": "article h5, article td:first-child",
      "lvl6": "article h6",
      "content": "article p, article li, article td:last-child"
    }
  },
  "strip_chars": ".,;:#"
}
